{
    "rules": {
        "class-name": true,
        "comment-format": [true,
            "check-space"
        ],
        "indent": [true,
            "spaces"
        ],
        "linebreak-style": [true, "LF"],
        "no-var-keyword": true,
        "quotemark": [true,
            "single",
            "avoid-escape"
        ],
        "semicolon": [true, "ignore-bound-class-methods"],
        "whitespace": [false,
            "check-branch",
            "check-decl",
            "check-operator",
            "check-module",
            "check-separator",
            "check-type"
        ],
        "typedef-whitespace": [true, {
            "call-signature": "nospace",
            "index-signature": "nospace",
            "parameter": "nospace",
            "property-declaration": "nospace",
            "variable-declaration": "nospace"
        }],
		"one-variable-per-declaration": true,
        "no-internal-module": true,
        "no-trailing-whitespace": true,
        "no-inferrable-types": true,
        "no-null-keyword": true,
        "prefer-const": true
  }
}
